[  
	{"_class" : "com.buildit.auth.domain.model.UserEntry", "id": 96, "username": "sander", "password": "sander", "role":"SITE_ENGINEER"},
	{"_class" : "com.buildit.auth.domain.model.UserEntry", "id": 97, "username": "jaan", "password": "jaan", "role":"SITE_ENGINEER"},
	{"_class" : "com.buildit.auth.domain.model.UserEntry", "id": 98, "username": "joonas", "password": "joonas", "role":"WORKS_ENGINEER"},
	{"_class" : "com.buildit.auth.domain.model.UserEntry", "id": 99, "username": "taavi", "password": "taavi", "role":"WORKS_ENGINEER"}
]
